…
        data_frame(k = xml_attr(tag_nodes, "k"), 
                   v = xml_attr(tag_nodes, "v"))
      })
      
      # And convert that to a single long data.frame
      out_df <- data_frame(ids, 
                           tags = tags) %>%
        unnest()
      
      out_df
    }

    old <- old_method() 
    old %>% print(n = 3)
    #> # A tibble: 4,616 x 3
    #>         ids       k               v
    #>       <chr>   <chr>           <chr>
    #> 1 187845021 highway mini_roundabout
    #> 2 187854927 highway mini_roundabout
    #> 3 187854980  noexit             yes
    #> # ... with 4,613 more rows
…
      values <- osm_xml_root %>%
        xml_find_all("/osm/node/tag/@v") %>%
        xml_text()
      
      data_frame(ids = ids,
                 k = keys,
                 v = values)
    }
    new <- new_method()
    new %>% print(n = 3)
    #> # A tibble: 4,616 x 3
    #>         ids       k               v
    #>       <chr>   <chr>           <chr>
    #> 1 187845021 highway mini_roundabout
    #> 2 187854927 highway mini_roundabout
    #> 3 187854980  noexit             yes
    #> # ... with 4,613 more rows
…
